<svg width="1440" height="786" viewBox="0 0 1440 786" fill="none" xmlns="http://www.w3.org/2000/svg">
<path d="M1440 0L1440 786L-3.43572e-05 786L0 -6.29444e-05L1440 0Z" fill="#CFA983"/>
<g style="mix-blend-mode:multiply" opacity="0.7">
<g clip-path="url(#clip0)">
<path d="M976.506 46.5799C947.934 130.227 953.337 182.669 992.714 203.907C1051.78 235.765 1192.23 248.507 1250.93 317.614C1309.64 386.72 1488.63 333.296 1519.25 214.689C1549.86 96.0816 1604.98 -86.7311 1314.33 -86.7311C1120.57 -86.7311 1007.96 -42.295 976.507 46.5799H976.506Z" fill="#FFFA72"/>
<path d="M500.718 211.734C420.715 445.945 435.844 592.784 546.098 652.251C711.482 741.452 1104.73 777.131 1269.11 970.631C1433.48 1164.13 1934.68 1014.54 2020.39 682.44C2106.11 350.339 2260.44 -161.536 1446.63 -161.536C904.092 -161.536 588.793 -37.1154 500.72 211.734H500.718Z" fill="white"/>
<path d="M540.367 197.972C464.65 419.635 478.969 558.608 583.316 614.889C739.84 699.311 1112.02 733.079 1267.59 916.213C1423.16 1099.34 1897.51 957.771 1978.63 643.461C2059.75 329.151 2205.82 -155.303 1435.61 -155.303C922.131 -155.303 623.723 -37.5471 540.369 197.972H540.367Z" fill="#F8F8F8"/>
<path d="M580.016 184.209C508.585 393.325 522.093 524.432 620.534 577.527C768.198 657.171 1119.31 689.027 1266.08 861.795C1412.84 1034.56 1860.34 901 1936.87 604.482C2013.4 307.963 2151.2 -149.069 1424.58 -149.069C940.171 -149.069 658.654 -37.9787 580.018 184.209H580.016Z" fill="#F1F1F1"/>
<path d="M619.665 170.446C552.52 367.016 565.217 490.255 657.752 540.165C796.556 615.03 1126.61 644.976 1264.57 807.377C1402.52 969.775 1823.17 844.23 1895.11 565.502C1967.05 286.775 2096.57 -142.835 1413.56 -142.835C958.211 -142.835 693.585 -38.4103 619.667 170.446H619.665Z" fill="#EAEAEA"/>
<path d="M659.314 156.683C596.454 340.706 608.342 456.079 694.97 502.803C824.914 572.889 1133.9 600.923 1263.05 752.959C1392.2 904.991 1786 787.459 1853.34 526.523C1920.69 265.587 2041.95 -136.601 1402.53 -136.601C976.251 -136.601 728.516 -38.8419 659.316 156.683H659.314Z" fill="#E3E3E3"/>
<path d="M698.963 142.92C640.389 314.396 651.466 421.903 732.188 465.441C853.273 530.749 1141.19 556.871 1261.54 698.541C1381.88 840.207 1748.83 730.689 1811.58 487.544C1874.34 244.399 1987.33 -130.368 1391.51 -130.368C994.29 -130.368 763.446 -39.2735 698.965 142.92H698.963Z" fill="#DCDCDC"/>
<path d="M738.612 129.157C684.324 288.086 694.591 387.727 769.406 428.079C881.631 488.608 1148.48 512.82 1260.02 644.123C1371.56 775.424 1711.66 673.919 1769.82 448.565C1827.98 223.211 1932.71 -124.134 1380.48 -124.134C1012.33 -124.134 798.377 -39.7051 738.614 129.157H738.612Z" fill="#D5D5D5"/>
<path d="M778.261 115.394C728.259 261.776 737.715 353.55 806.624 390.717C909.989 446.468 1155.77 468.767 1258.51 589.705C1361.24 710.64 1674.49 617.148 1728.06 409.585C1781.63 202.022 1878.09 -117.9 1369.46 -117.9C1030.37 -117.9 833.308 -40.1368 778.263 115.394H778.261Z" fill="#CDCDCD"/>
<path d="M817.91 101.631C772.194 235.466 780.84 319.374 843.842 353.355C938.347 404.327 1163.06 424.715 1256.99 535.287C1350.92 645.856 1637.32 560.378 1686.3 370.606C1735.28 180.834 1823.47 -111.666 1358.43 -111.666C1048.41 -111.666 868.239 -40.5684 817.912 101.631H817.91Z" fill="#C6C6C6"/>
<path d="M857.559 87.8685C816.129 209.156 823.964 285.198 881.06 315.993C966.705 362.186 1170.35 380.663 1255.48 480.868C1340.6 581.072 1600.14 503.607 1644.53 331.627C1688.92 159.646 1768.84 -105.432 1347.41 -105.432C1066.45 -105.432 903.169 -41.0001 857.561 87.8685H857.559Z" fill="#BFBFBF"/>
<path d="M897.208 74.1057C860.064 182.846 867.088 251.022 918.278 278.631C995.063 320.046 1177.64 336.611 1253.96 426.451C1330.28 516.288 1562.97 446.837 1602.77 292.648C1642.57 138.458 1714.22 -99.1986 1336.38 -99.1986C1084.49 -99.1986 938.1 -41.4317 897.21 74.1057H897.208Z" fill="#B8B8B8"/>
<path d="M936.857 60.3428C903.999 156.536 910.213 216.845 955.496 241.269C1023.42 277.905 1184.93 292.559 1252.45 372.032C1319.96 451.504 1525.8 390.067 1561.01 253.668C1596.21 117.27 1659.6 -92.9648 1325.36 -92.9648C1102.53 -92.9648 973.031 -41.8633 936.858 60.3428H936.857Z" fill="#B1B1B1"/>
</g>
</g>
<defs>
<clipPath id="clip0">
<rect x="245" width="1195" height="786" fill="white"/>
</clipPath>
</defs>
</svg>
