<svg width="166" height="36" viewBox="0 0 166 36" fill="none" xmlns="http://www.w3.org/2000/svg">
<path d="M0 34.4411V17.0825C-6.42957e-07 15.48 0.636982 13.943 1.77097 12.8093C2.90496 11.6756 4.44318 11.038 6.0476 11.0365V13.8944C7.3319 11.6049 10.334 10.3708 12.9026 10.3708C16.0944 10.3708 18.6684 11.751 19.8552 14.2733C21.7139 11.4154 24.1904 10.3708 27.2846 10.3708C31.6198 10.3708 35.7654 12.9905 35.7654 19.2639V28.3031C35.7654 29.931 35.1179 31.4922 33.9655 32.6433C32.813 33.7944 31.25 34.4411 29.6202 34.4411V20.5683C29.6202 18.046 28.3847 16.1461 25.4747 16.1461C22.7652 16.1461 21.1395 18.2354 21.1395 20.7578V28.1461C21.1395 29.8114 20.4772 31.4084 19.2984 32.5859C18.1195 33.7634 16.5206 34.4249 14.8535 34.4249V20.5683C14.8535 18.046 13.5637 16.1461 10.7079 16.1461C7.94966 16.1461 6.32938 18.1867 6.32938 20.7578V28.1137C6.32938 29.7909 5.66271 31.3995 4.47588 32.5859C3.28905 33.7724 1.67916 34.4397 0 34.4411" fill="#6F1C19"/>
<path d="M59.5276 27.7294C58.3408 31.7727 54.6505 35.1502 48.863 35.1502C42.4361 35.1502 36.7678 30.5386 36.7678 22.6414C36.7678 15.1556 42.2681 10.3221 48.294 10.3221C55.5284 10.3221 59.8636 14.9391 59.8636 22.452V22.4791C59.8593 22.9925 59.6517 23.4834 59.2861 23.8445C58.9206 24.2056 58.4268 24.4074 57.9127 24.406H43.0051C43.146 27.4966 45.7688 29.7321 48.9118 29.7321C50.1205 29.7766 51.3132 29.4457 52.3257 28.7849C53.3684 28.0772 54.5568 27.6125 55.8034 27.4251C57.0499 27.2378 58.3226 27.3325 59.5276 27.7023V27.7294ZM53.648 20.0758C53.5559 17.7429 52.0223 15.4642 48.4078 15.4642C47.1092 15.416 45.8416 15.8676 44.8665 16.7257C43.8915 17.5838 43.2834 18.7829 43.1677 20.0758H53.648Z" fill="#6F1C19"/>
<path d="M67.4231 20.9743L73.1835 20.1191C74.5165 19.9297 74.9446 19.2639 74.9446 18.4574C74.9446 16.7957 73.6603 15.41 70.9942 15.41C69.8307 15.3658 68.6938 15.7643 67.8132 16.5251C66.9351 17.2894 65.8868 17.8331 64.7556 18.1109C63.6245 18.3886 62.4433 18.3924 61.3104 18.1218L60.8715 18.0298C61.2508 14.3654 64.6323 10.3221 70.9183 10.3221C78.3477 10.3221 81.1114 14.5115 81.1114 19.2206V30.7659C81.1157 31.2448 81.0255 31.7197 80.8458 32.1637C80.6661 32.6076 80.4006 33.0118 80.0644 33.3532C79.7282 33.6946 79.3279 33.9663 78.8864 34.153C78.4449 34.3397 77.9709 34.4376 77.4916 34.4412H75.6003C75.4388 33.5135 75.359 32.5735 75.3619 31.632C74.1751 33.4885 71.9371 35.1069 68.4581 35.1069C63.4618 35.1069 60.4109 31.7294 60.4109 28.0704C60.4109 23.8864 63.5051 21.5751 67.4122 20.9797L67.4231 20.9743ZM74.9338 24.9797V23.9297L69.6503 24.7362C68.0246 24.9743 66.7457 25.8782 66.7457 27.6861C66.7457 29.0663 67.7428 30.3924 69.7912 30.3924C72.4573 30.3924 74.9338 29.1096 74.9338 24.9797Z" fill="#6F1C19"/>
<path d="M96.561 34.4411V0C98.2411 0 99.8524 0.666642 101.04 1.85327C102.228 3.0399 102.896 4.64932 102.896 6.32747V12.9905C104.419 11.1827 106.993 10.4249 109.231 10.4249C115.192 10.4249 117.944 14.5602 117.944 19.7023V28.1137C117.944 29.7881 117.28 31.3942 116.097 32.5802C114.913 33.7662 113.308 34.4354 111.631 34.4411V20.7848C111.631 18.1705 110.347 16.1299 107.296 16.1299C104.63 16.1299 103.058 18.1272 102.918 20.6928V28.1137C102.918 29.7918 102.25 31.4012 101.062 32.5879C99.8741 33.7745 98.2628 34.4411 96.5827 34.4411" fill="#F8B638"/>
<path d="M134.391 31.935C133.107 34.1001 130.392 35.0744 127.888 35.0744C122.225 35.0744 118.985 30.9337 118.985 25.8728V11.0365C120.665 11.0365 122.276 11.7032 123.464 12.8898C124.652 14.0764 125.32 15.6859 125.32 17.364V24.5413C125.32 27.161 126.653 29.2557 129.601 29.2557C132.413 29.2557 134.033 27.3505 134.033 24.6387V11.0365C135.714 11.038 137.325 11.7058 138.513 12.8933C139.701 14.0808 140.368 15.6908 140.368 17.3694V30.2084C140.37 31.6224 140.448 33.0354 140.601 34.4411H136.889C136.227 34.4354 135.593 34.1692 135.125 33.7002C134.658 33.2311 134.394 32.597 134.391 31.935Z" fill="#F8B638"/>
<path d="M141.631 34.4411V0C143.285 0 144.872 0.656377 146.041 1.82474C147.211 2.9931 147.868 4.57773 147.868 6.23004V13.6076C148.919 11.9405 151.488 10.4195 154.967 10.4195C161.822 10.4195 165.778 15.6969 165.778 22.6414C165.778 29.7321 161.394 35.0095 154.723 35.0095C151.472 35.0095 149.012 33.5805 147.776 31.5832C147.776 32.3412 147.475 33.0681 146.938 33.6041C146.401 34.14 145.674 34.4411 144.915 34.4411H141.631ZM153.634 16.0758C150.442 16.0758 147.776 18.4087 147.776 22.6901C147.776 26.9716 150.442 29.3478 153.634 29.3478C156.826 29.3478 159.443 26.9716 159.443 22.6901C159.443 18.4087 156.869 16.0758 153.634 16.0758Z" fill="#F8B638"/>
<path d="M95.6235 16.6495V15.7456C95.622 14.4971 95.1249 13.3002 94.241 12.4174C93.3572 11.5346 92.1589 11.038 90.9089 11.0365V9.7429C90.9062 8.24054 90.3108 6.79979 89.2518 5.7329C88.1928 4.66602 86.7555 4.05897 85.2515 4.0433L85.1919 4.10284V10.9824L85.1377 11.0365H80.3853V12.4168C80.3853 13.5394 80.8317 14.616 81.6264 15.4098C82.4212 16.2036 83.499 16.6495 84.6229 16.6495H85.1919V27.7997C85.1772 29.615 85.8774 31.3633 87.1415 32.6675C88.4057 33.9717 90.1325 34.7273 91.9494 34.7713H92.0523C93.2556 34.8178 94.4567 34.6341 95.5909 34.23L95.6235 34.1813V31.1123C95.6235 30.5941 95.4174 30.0971 95.0505 29.7306C94.6836 29.3642 94.186 29.1583 93.6672 29.1583C91.8627 29.1583 90.9089 28.4926 90.9089 26.452V16.7091L90.9631 16.6495H95.6235Z" fill="#6F1C19"/>
</svg>
