<svg width="135" height="40" viewBox="0 0 135 40" fill="none" xmlns="http://www.w3.org/2000/svg">
<path d="M129.564 0.49115H5.26797C2.52211 0.49115 0.296143 2.68964 0.296143 5.4016V34.8643C0.296143 37.5763 2.52211 39.7747 5.26797 39.7747H129.564C132.31 39.7747 134.536 37.5763 134.536 34.8643V5.4016C134.536 2.68964 132.31 0.49115 129.564 0.49115Z" fill="black"/>
<path d="M129.564 1.27682C130.671 1.27683 131.734 1.71141 132.517 2.48495C133.3 3.2585 133.74 4.30765 133.74 5.40161V34.8643C133.74 35.9582 133.3 37.0074 132.517 37.7809C131.734 38.5545 130.671 38.9891 129.564 38.9891H5.26797C4.71953 38.9891 4.17645 38.8824 3.66976 38.6751C3.16306 38.4678 2.70266 38.164 2.31485 37.7809C1.92704 37.3979 1.61942 36.9432 1.40954 36.4428C1.19966 35.9423 1.09163 35.4059 1.09163 34.8643V5.40161C1.09163 4.85994 1.19966 4.32356 1.40954 3.82312C1.61942 3.32268 1.92704 2.86797 2.31485 2.48494C2.70266 2.10192 3.16306 1.79809 3.66976 1.5908C4.17645 1.38351 4.71953 1.27682 5.26797 1.27682H129.564ZM129.564 0.49115H5.26797C4.61506 0.49115 3.96854 0.618166 3.36533 0.864939C2.76212 1.11171 2.21403 1.47341 1.75235 1.92939C1.29068 2.38537 0.924455 2.9267 0.674597 3.52246C0.42474 4.11823 0.296141 4.75676 0.296143 5.40161V34.8643C0.296141 35.5091 0.42474 36.1477 0.674597 36.7434C0.924455 37.3392 1.29068 37.8805 1.75235 38.3365C2.21403 38.7925 2.76212 39.1542 3.36533 39.401C3.96854 39.6477 4.61506 39.7747 5.26797 39.7747H129.564C130.882 39.7747 132.147 39.2574 133.079 38.3365C134.012 37.4156 134.536 36.1666 134.536 34.8643V5.40161C134.536 4.09928 134.012 2.85029 133.079 1.9294C132.147 1.00851 130.882 0.491156 129.564 0.49115Z" fill="#A6A6A6"/>
<path d="M49.7543 10.7946C49.77 11.1277 49.7169 11.4606 49.5983 11.7729C49.4797 12.0851 49.2982 12.3704 49.0646 12.6112C48.8038 12.8788 48.4888 13.0891 48.1402 13.2284C47.7915 13.3677 47.4171 13.4328 47.0413 13.4196C46.4711 13.4152 45.9149 13.2447 45.4423 12.9295C44.9698 12.6142 44.602 12.1682 44.385 11.6474C44.168 11.1266 44.1114 10.5541 44.2224 10.0017C44.3334 9.44928 44.6069 8.94149 45.0088 8.54196C45.273 8.27563 45.5896 8.06566 45.9392 7.92505C46.2888 7.78445 46.6639 7.71618 47.0413 7.72449C47.4301 7.72318 47.815 7.80043 48.1725 7.95147C48.5053 8.08404 48.8015 8.29259 49.037 8.56003L48.5496 9.04145C48.366 8.82581 48.1342 8.65529 47.8724 8.54336C47.6107 8.43143 47.3261 8.38117 47.0413 8.39654C46.754 8.39515 46.4694 8.45107 46.2046 8.56094C45.9397 8.67081 45.7001 8.83238 45.5 9.03595C45.2999 9.23951 45.1434 9.48089 45.0401 9.74561C44.9367 10.0103 44.8886 10.2929 44.8985 10.5765C44.8924 10.9999 45.0135 11.4156 45.2464 11.7711C45.4793 12.1266 45.8136 12.406 46.2071 12.5741C46.6006 12.7422 47.0357 12.7914 47.4575 12.7156C47.8793 12.6397 48.2689 12.4422 48.5772 12.1479C48.8601 11.845 49.0234 11.4517 49.037 11.0398H47.0413V10.3857H49.7176C49.7421 10.5206 49.7544 10.6574 49.7543 10.7945L49.7543 10.7946Z" fill="white" stroke="white" stroke-width="0.272495" stroke-miterlimit="10"/>
<path d="M53.9664 8.52381H51.4833V10.2496H53.7457V10.9036H51.4833V12.6294H53.9664V13.3016H50.7476V7.85165H53.9664V8.52381Z" fill="white" stroke="white" stroke-width="0.272495" stroke-miterlimit="10"/>
<path d="M56.9829 13.3016H56.2748V8.52381H54.7297V7.85165H58.5648V8.52381H56.9829V13.3016Z" fill="white" stroke="white" stroke-width="0.272495" stroke-miterlimit="10"/>
<path d="M61.2686 13.3016V7.85165H61.9767V13.3016H61.2686Z" fill="white" stroke="white" stroke-width="0.272495" stroke-miterlimit="10"/>
<path d="M65.1221 13.3016H64.4139V8.52381H62.8689V7.85165H66.6579V8.52381H65.1221V13.3016Z" fill="white" stroke="white" stroke-width="0.272495" stroke-miterlimit="10"/>
<path d="M73.8405 12.5931C73.3029 13.1211 72.5755 13.4175 71.8172 13.4175C71.059 13.4175 70.3316 13.1211 69.7939 12.5931C69.2714 12.0467 68.9802 11.3236 68.9802 10.5721C68.9802 9.8205 69.2714 9.09741 69.7939 8.55108C70.0589 8.28743 70.3742 8.07819 70.7214 7.93539C71.0687 7.7926 71.4411 7.71909 71.8172 7.71909C72.1934 7.71909 72.5658 7.7926 72.913 7.93539C73.2603 8.07819 73.5755 8.28743 73.8405 8.55108C74.3652 9.09636 74.6577 9.81985 74.6577 10.5721C74.6577 11.3243 74.3652 12.0478 73.8405 12.5931ZM70.3182 12.1389C70.7163 12.5305 71.2553 12.7504 71.8172 12.7504C72.3791 12.7504 72.9181 12.5305 73.3163 12.1389C73.7092 11.7111 73.9269 11.1542 73.9269 10.5766C73.9269 9.99902 73.7092 9.44211 73.3163 9.01431C72.9181 8.62271 72.3791 8.40285 71.8172 8.40285C71.2553 8.40285 70.7163 8.62271 70.3182 9.01431C69.9252 9.44211 69.7076 9.99902 69.7076 10.5766C69.7076 11.1542 69.9252 11.7111 70.3182 12.1389Z" fill="white" stroke="white" stroke-width="0.272495" stroke-miterlimit="10"/>
<path d="M75.6523 13.3016V7.85165H76.5168L79.2023 12.0935V11.0399V7.85165H79.9012V13.3016H79.1655L76.3605 8.85987V9.91353V13.3016H75.6523Z" fill="white" stroke="white" stroke-width="0.272495" stroke-miterlimit="10"/>
<path d="M68.81 21.2493C68.0378 21.2529 67.2839 21.4824 66.6436 21.9087C66.0032 22.3351 65.5051 22.9392 65.2121 23.6449C64.9191 24.3506 64.8443 25.1262 64.9972 25.8739C65.1501 26.6215 65.5237 27.3076 66.0711 27.8457C66.6185 28.3838 67.3149 28.7496 68.0726 28.8971C68.8303 29.0446 69.6152 28.9671 70.3284 28.6744C71.0415 28.3817 71.6509 27.8869 72.0795 27.2525C72.5082 26.6181 72.737 25.8724 72.737 25.1097C72.7445 24.5991 72.6479 24.0923 72.453 23.6194C72.2581 23.1465 71.9688 22.7172 71.6024 22.357C71.236 21.9968 70.7999 21.7132 70.3202 21.5228C69.8405 21.3325 69.3269 21.2395 68.81 21.2493ZM68.81 27.4531C68.3351 27.486 67.8611 27.3769 67.4498 27.1401C67.0385 26.9034 66.7087 26.5499 66.5035 26.1256C66.2983 25.7013 66.227 25.2258 66.299 24.761C66.371 24.2962 66.5829 23.8635 66.9072 23.5192C67.2315 23.175 67.6531 22.935 68.1173 22.8305C68.5815 22.726 69.0668 22.7619 69.5101 22.9334C69.9534 23.105 70.3341 23.4042 70.6029 23.7924C70.8717 24.1805 71.0161 24.6395 71.0172 25.1097C71.032 25.4076 70.9863 25.7055 70.8827 25.9857C70.7791 26.2659 70.6198 26.5228 70.4141 26.7412C70.2083 26.9596 69.9604 27.1351 69.6849 27.2574C69.4095 27.3797 69.112 27.4462 68.81 27.4531ZM60.2479 21.2493C59.4752 21.2511 58.7204 21.479 58.0789 21.9043C57.4373 22.3296 56.9378 22.9331 56.6434 23.6387C56.3489 24.3442 56.2729 25.1201 56.4247 25.8683C56.5766 26.6166 56.9495 27.3036 57.4965 27.8426C58.0435 28.3815 58.74 28.7483 59.4979 28.8965C60.2559 29.0447 61.0413 28.9677 61.7549 28.6753C62.4686 28.3829 63.0785 27.8881 63.5076 27.2534C63.9367 26.6188 64.1657 25.8728 64.1657 25.1097C64.1732 24.5991 64.0766 24.0923 63.8817 23.6194C63.6867 23.1465 63.3975 22.7172 63.031 22.357C62.6646 21.9968 62.2286 21.7132 61.7489 21.5228C61.2691 21.3325 60.7556 21.2395 60.2387 21.2493H60.2479ZM60.2479 27.4531C59.7727 27.4878 59.298 27.3804 58.8855 27.1448C58.473 26.9093 58.1419 26.5565 57.9352 26.1325C57.7286 25.7085 57.6559 25.2329 57.7268 24.7675C57.7976 24.3022 58.0087 23.8687 58.3325 23.5235C58.6563 23.1783 59.0778 22.9373 59.5422 22.832C60.0066 22.7267 60.4923 22.7619 60.9361 22.9331C61.38 23.1042 61.7613 23.4034 62.0306 23.7916C62.2999 24.1798 62.4446 24.6391 62.4459 25.1097C62.4607 25.4076 62.415 25.7055 62.3114 25.9857C62.2078 26.2659 62.0484 26.5228 61.8427 26.7412C61.637 26.9596 61.3891 27.1351 61.1136 27.2574C60.8381 27.3797 60.5406 27.4462 60.2387 27.4531H60.2479ZM50.0487 22.4393V24.0742H54.0217C53.9594 24.8443 53.6353 25.5709 53.102 26.1361C52.7046 26.5359 52.2267 26.8492 51.6993 27.0557C51.1718 27.2622 50.6065 27.3574 50.0395 27.3351C48.8688 27.3351 47.7459 26.8757 46.9181 26.0581C46.0902 25.2404 45.6251 24.1315 45.6251 22.9751C45.6251 21.8188 46.0902 20.7098 46.9181 19.8922C47.7459 19.0745 48.8688 18.6152 50.0395 18.6152C51.1595 18.5972 52.241 19.0186 53.0468 19.7869L54.2148 18.6334C53.6708 18.0893 53.0218 17.6586 52.3062 17.3669C51.5905 17.0751 50.8229 16.9282 50.0487 16.9348C49.2311 16.9034 48.4156 17.0353 47.6508 17.3227C46.8861 17.61 46.188 18.0469 45.5983 18.6071C45.0086 19.1673 44.5395 19.8393 44.219 20.5828C43.8986 21.3264 43.7334 22.1262 43.7334 22.9343C43.7334 23.7424 43.8986 24.5422 44.219 25.2857C44.5395 26.0293 45.0086 26.7013 45.5983 27.2615C46.188 27.8217 46.8861 28.2585 47.6508 28.5459C48.4156 28.8332 49.2311 28.9651 50.0487 28.9337C50.8359 28.9688 51.6216 28.837 52.3529 28.5472C53.0842 28.2573 53.7442 27.8161 54.2884 27.2533C55.2519 26.2078 55.7664 24.8333 55.7231 23.4202C55.7261 23.076 55.6953 22.7322 55.6312 22.3938H50.0488L50.0487 22.4393ZM91.719 23.7109C91.4792 23.014 91.0307 22.4054 90.4329 21.9658C89.8351 21.5263 89.1162 21.2764 88.3714 21.2493C87.8683 21.2484 87.3704 21.3493 86.9084 21.5459C86.4464 21.7425 86.0302 22.0307 85.6854 22.3925C85.3406 22.7543 85.0746 23.1821 84.9039 23.6495C84.7332 24.1168 84.6613 24.6138 84.6927 25.1097C84.6816 25.6173 84.7741 26.122 84.9648 26.5936C85.1556 27.0651 85.4406 27.4939 85.8028 27.8542C86.1651 28.2146 86.5972 28.4991 87.0732 28.6908C87.5493 28.8825 88.0597 28.9775 88.5737 28.97C89.217 28.9734 89.8512 28.8193 90.4193 28.5212C90.9875 28.2232 91.472 27.7907 91.8294 27.2624L90.4959 26.3541C90.2968 26.6818 90.0151 26.9528 89.6781 27.1407C89.3412 27.3286 88.9607 27.4269 88.5737 27.4259C88.1754 27.4409 87.7816 27.3372 87.4438 27.1282C87.1059 26.9192 86.8395 26.6147 86.6792 26.2542L91.9122 24.1196L91.719 23.7109ZM86.3849 25.0007C86.3663 24.7197 86.4046 24.4379 86.4976 24.1718C86.5906 23.9056 86.7364 23.6605 86.9266 23.4507C87.1167 23.2409 87.3473 23.0707 87.6049 22.9501C87.8624 22.8294 88.1418 22.7607 88.4266 22.748C88.7232 22.7287 89.0191 22.7959 89.2774 22.9413C89.5358 23.0866 89.7452 23.3037 89.8797 23.5655L86.3849 25.0007ZM82.136 28.7429H83.8558V17.389H82.136V28.7429ZM79.3219 22.1122H79.2575C78.9983 21.826 78.6808 21.5971 78.3258 21.4406C77.9708 21.2841 77.5863 21.2034 77.1975 21.2039C76.1924 21.2521 75.2447 21.6803 74.5507 22.3998C73.8566 23.1194 73.4695 24.075 73.4695 25.0688C73.4695 26.0626 73.8566 27.0183 74.5507 27.7378C75.2447 28.4573 76.1924 28.8856 77.1975 28.9337C77.5872 28.9402 77.9736 28.8622 78.3295 28.7053C78.6855 28.5483 79.0022 28.3163 79.2575 28.0254H79.3126V28.6521C79.3126 30.1327 78.5125 30.9229 77.2249 30.9229C76.7961 30.913 76.38 30.7773 76.0295 30.533C75.679 30.2888 75.4101 29.9471 75.2569 29.5514L73.7578 30.169C74.04 30.8469 74.5208 31.4261 75.1385 31.8324C75.7563 32.2386 76.4828 32.4532 77.2249 32.4489C79.239 32.4489 80.9036 31.2772 80.9036 28.4251V21.4764H79.3218L79.3219 22.1122ZM77.3537 27.4531C76.7605 27.4015 76.2084 27.1323 75.8062 26.6985C75.404 26.2647 75.1809 25.6979 75.1809 25.1097C75.1809 24.5215 75.404 23.9547 75.8062 23.5209C76.2084 23.0871 76.7605 22.8179 77.3537 22.7662C77.6479 22.7811 77.936 22.854 78.2012 22.9806C78.4664 23.1072 78.7032 23.2849 78.8977 23.5033C79.0923 23.7217 79.2406 23.9763 79.334 24.2522C79.4274 24.5281 79.4639 24.8196 79.4414 25.1097C79.4665 25.401 79.4315 25.6943 79.3386 25.9718C79.2456 26.2494 79.0966 26.5054 78.9006 26.7245C78.7046 26.9435 78.4656 27.1211 78.1982 27.2463C77.9307 27.3715 77.6403 27.4419 77.3446 27.4531H77.3537ZM99.7753 17.389H95.6644V28.7429H97.3842V24.4375H99.7845C100.275 24.4717 100.767 24.4057 101.23 24.2438C101.693 24.0818 102.118 23.8274 102.477 23.4963C102.836 23.1651 103.123 22.7645 103.318 22.3192C103.514 21.874 103.614 21.3937 103.614 20.9083C103.613 20.423 103.511 19.943 103.315 19.4983C103.118 19.0535 102.83 18.6536 102.47 18.3234C102.11 17.9932 101.685 17.7398 101.221 17.579C100.758 17.4183 100.265 17.3536 99.7753 17.389H99.7753ZM99.7753 22.8389H97.375V18.9695H99.8121C100.334 18.9695 100.835 19.1742 101.204 19.5388C101.573 19.9033 101.78 20.3977 101.78 20.9133C101.78 21.4288 101.573 21.9232 101.204 22.2877C100.835 22.6523 100.334 22.8571 99.8121 22.8571L99.7753 22.8389ZM110.379 21.2039C109.753 21.167 109.13 21.3115 108.586 21.6197C108.041 21.9279 107.6 22.3864 107.317 22.9388L108.843 23.5655C108.994 23.2915 109.222 23.0667 109.499 22.9183C109.777 22.7699 110.092 22.7045 110.407 22.7299C110.625 22.7047 110.846 22.7227 111.057 22.7829C111.269 22.843 111.466 22.9441 111.637 23.0802C111.808 23.2164 111.95 23.3848 112.055 23.5757C112.159 23.7667 112.224 23.9763 112.246 24.1923V24.3104C111.694 24.0216 111.078 23.8719 110.453 23.8745C108.806 23.8745 107.142 24.7828 107.142 26.4268C107.158 26.7774 107.245 27.1212 107.398 27.4378C107.552 27.7545 107.767 28.0377 108.033 28.2705C108.299 28.5034 108.609 28.6813 108.946 28.7936C109.283 28.906 109.639 28.9506 109.993 28.9247C110.426 28.9554 110.859 28.8704 111.248 28.6786C111.636 28.4868 111.965 28.1954 112.2 27.8347H112.255V28.743H113.911V24.374C113.911 22.3848 112.384 21.2313 110.425 21.2313L110.379 21.2039ZM110.168 27.4259C109.861 27.4682 109.55 27.3916 109.3 27.212C109.049 27.0324 108.879 26.764 108.825 26.4631C108.825 25.5547 109.8 25.255 110.664 25.255C111.211 25.2417 111.75 25.3735 112.228 25.6365C112.17 26.1283 111.935 26.5829 111.565 26.9168C111.194 27.2506 110.715 27.4411 110.214 27.4531L110.168 27.4259ZM119.944 21.4764L117.976 26.3995H117.921L115.879 21.4764H114.04L117.102 28.3615L115.355 32.1855H117.148L121.857 21.4764H119.953H119.944ZM104.484 28.7429H106.204V17.389H104.484V28.7429Z" fill="white"/>
<path d="M15.7449 8.34213C15.4452 8.69738 15.2939 9.15216 15.3219 9.61377V29.7057C15.2939 30.1674 15.4452 30.6221 15.7449 30.9774L15.8093 31.0409L27.2041 19.7959V19.5235L15.8093 8.27856L15.7449 8.34213Z" fill="url(#paint0_linear)"/>
<path d="M30.9748 23.5473L27.2041 19.796V19.5235L30.9748 15.7722L31.0576 15.8177L35.5732 18.3519C36.8607 19.0695 36.8607 20.2503 35.5732 20.9769L31.076 23.502L30.9748 23.5473Z" fill="url(#paint1_linear)"/>
<path d="M31.085 23.4929L27.204 19.6598L15.7449 30.9774C16.0073 31.2053 16.3421 31.3354 16.6914 31.3454C17.0406 31.3554 17.3825 31.2445 17.6578 31.032L31.0942 23.493" fill="url(#paint2_linear)"/>
<path d="M31.0849 15.8267L17.6485 8.28765C17.3732 8.07511 17.0314 7.96422 16.6821 7.97416C16.3328 7.98409 15.998 8.11422 15.7356 8.34205L27.2039 19.6597L31.0849 15.8267Z" fill="url(#paint3_linear)"/>
<path opacity="0.2" d="M30.9746 23.4111L17.6486 30.9047C17.3831 31.1008 17.0605 31.2067 16.7289 31.2067C16.3974 31.2067 16.0748 31.1008 15.8093 30.9047L15.7449 30.9683L15.8093 31.0318C16.0742 31.2293 16.397 31.3361 16.7289 31.3361C17.0608 31.3361 17.3837 31.2293 17.6486 31.0318L31.085 23.4928L30.9746 23.4111Z" fill="black"/>
<path opacity="0.12" d="M15.7449 30.8502C15.4452 30.495 15.2939 30.0402 15.3219 29.5786V29.7148C15.2939 30.1764 15.4452 30.6312 15.7449 30.9865L15.8093 30.9229L15.7449 30.8502Z" fill="black"/>
<path opacity="0.12" d="M35.573 20.8406L30.9746 23.4111L31.0575 23.4929L35.573 20.9678C35.8293 20.849 36.0492 20.6654 36.2107 20.4358C36.3722 20.2061 36.4694 19.9385 36.4927 19.6599C36.441 19.913 36.3312 20.1511 36.1718 20.3558C36.0124 20.5605 35.8075 20.7264 35.573 20.8407L35.573 20.8406Z" fill="black"/>
<path opacity="0.25" d="M17.6487 8.41482L35.5731 18.479C35.8076 18.5933 36.0124 18.7591 36.1718 18.9638C36.3313 19.1685 36.4411 19.4066 36.4928 19.6598C36.4695 19.3811 36.3722 19.1135 36.2107 18.8839C36.0493 18.6542 35.8293 18.4707 35.5731 18.3518L17.6487 8.28766C16.3612 7.57008 15.3127 8.16948 15.3127 9.62288V9.75912C15.3403 8.29671 16.3704 7.69722 17.6487 8.4148V8.41482Z" fill="white"/>
<defs>
<linearGradient id="paint0_linear" x1="26.1924" y1="9.40488" x2="10.952" y2="24.8358" gradientUnits="userSpaceOnUse">
<stop stop-color="#00A0FF"/>
<stop offset="0.01" stop-color="#00A1FF"/>
<stop offset="0.26" stop-color="#00BEFF"/>
<stop offset="0.51" stop-color="#00D2FF"/>
<stop offset="0.76" stop-color="#00DFFF"/>
<stop offset="1" stop-color="#00E3FF"/>
</linearGradient>
<linearGradient id="paint1_linear" x1="37.2561" y1="19.6598" x2="15.0093" y2="19.6598" gradientUnits="userSpaceOnUse">
<stop stop-color="#FFE000"/>
<stop offset="0.41" stop-color="#FFBD00"/>
<stop offset="0.78" stop-color="#FFA500"/>
<stop offset="1" stop-color="#FF9C00"/>
</linearGradient>
<linearGradient id="paint2_linear" x1="28.9789" y1="21.7489" x2="8.30715" y2="42.6699" gradientUnits="userSpaceOnUse">
<stop stop-color="#FF3A44"/>
<stop offset="1" stop-color="#C31162"/>
</linearGradient>
<linearGradient id="paint3_linear" x1="12.857" y1="1.65694" x2="22.0848" y2="11.0001" gradientUnits="userSpaceOnUse">
<stop stop-color="#32A071"/>
<stop offset="0.07" stop-color="#2DA771"/>
<stop offset="0.48" stop-color="#15CF74"/>
<stop offset="0.8" stop-color="#06E775"/>
<stop offset="1" stop-color="#00F076"/>
</linearGradient>
</defs>
</svg>
