<svg width="156" height="156" viewBox="0 0 156 156" fill="none" xmlns="http://www.w3.org/2000/svg">
<mask id="mask0" mask-type="alpha" maskUnits="userSpaceOnUse" x="0" y="0" width="156" height="156">
<circle cx="78" cy="78" r="78" fill="#3A3A3A"/>
</mask>
<g mask="url(#mask0)">
<path d="M172 -19H-15V174.27H172V-19Z" fill="white"/>
<g opacity="0.15">
<path opacity="0.15" d="M14.4524 55.9697H29.3002V63.449H14.4524" stroke="#474747" stroke-width="6" stroke-miterlimit="10" stroke-linecap="round" stroke-linejoin="round"/>
<path opacity="0.15" d="M44.1294 63.449H29.3003" stroke="#474747" stroke-width="6" stroke-miterlimit="10" stroke-linecap="round" stroke-linejoin="round"/>
<path opacity="0.15" d="M29.3003 55.9697H34.9851" stroke="#474747" stroke-width="6" stroke-miterlimit="10" stroke-linecap="round" stroke-linejoin="round"/>
<path opacity="0.15" d="M36.7053 63.449H21.8762V70.9287H36.7053V63.449Z" stroke="#474747" stroke-width="6" stroke-miterlimit="10" stroke-linecap="round" stroke-linejoin="round"/>
<path opacity="0.15" d="M16.7712 70.9675H29.3002V78.4468H24.4943" stroke="#474747" stroke-width="6" stroke-miterlimit="10" stroke-linecap="round" stroke-linejoin="round"/>
<path opacity="0.15" d="M44.1294 70.9675H29.3003V78.4468H44.1294V70.9675Z" stroke="#474747" stroke-width="6" stroke-miterlimit="10" stroke-linecap="round" stroke-linejoin="round"/>
<path opacity="0.15" d="M93.5535 83.0469H108.401V90.5068H93.5535" stroke="#474747" stroke-width="6" stroke-miterlimit="10" stroke-linecap="round" stroke-linejoin="round"/>
<path opacity="0.15" d="M123.23 90.5068H108.401" stroke="#474747" stroke-width="6" stroke-miterlimit="10" stroke-linecap="round" stroke-linejoin="round"/>
<path opacity="0.15" d="M108.401 83.0469H114.086" stroke="#474747" stroke-width="6" stroke-miterlimit="10" stroke-linecap="round" stroke-linejoin="round"/>
<path opacity="0.15" d="M115.806 90.5068H100.977V97.9868H115.806V90.5068Z" stroke="#474747" stroke-width="6" stroke-miterlimit="10" stroke-linecap="round" stroke-linejoin="round"/>
<path opacity="0.15" d="M95.8721 98.0251H108.401V105.505H103.595" stroke="#474747" stroke-width="6" stroke-miterlimit="10" stroke-linecap="round" stroke-linejoin="round"/>
<path opacity="0.15" d="M117.957 105.505H108.401V98.0251H120.762" stroke="#474747" stroke-width="6" stroke-miterlimit="10" stroke-linecap="round" stroke-linejoin="round"/>
<path opacity="0.15" d="M68.1962 27.9646H45.1765V47.2529H68.1962V27.9646Z" stroke="#474747" stroke-width="6" stroke-miterlimit="10" stroke-linecap="round" stroke-linejoin="round"/>
<path opacity="0.15" d="M48.3555 42.7886L52.563 36.4688L56.9388 42.0542" stroke="#474747" stroke-width="6" stroke-miterlimit="10" stroke-linecap="round" stroke-linejoin="round"/>
<path opacity="0.15" d="M55.3306 40.0055L61.2211 34.1108L65.3912 42.7886" stroke="#474747" stroke-width="6" stroke-miterlimit="10" stroke-linecap="round" stroke-linejoin="round"/>
<path opacity="0.15" d="M53.7971 38.0339C54.0963 37.1257 54.9191 36.4688 55.8915 36.4688C56.6956 36.4688 57.4062 36.9132 57.7989 37.5895" stroke="#474747" stroke-width="6" stroke-miterlimit="10" stroke-linecap="round" stroke-linejoin="round"/>
<path opacity="0.15" d="M128.055 60.2793H95.3112C94.0957 60.2793 93.1233 59.2744 93.1233 58.0182C93.1233 56.762 94.0957 55.7571 95.3112 55.7571H128.055C129.27 55.7571 130.243 56.762 130.243 58.0182C130.243 59.2744 129.27 60.2793 128.055 60.2793Z" stroke="#474747" stroke-width="6" stroke-miterlimit="10" stroke-linecap="round" stroke-linejoin="round"/>
<path opacity="0.15" d="M116.797 55.7571H107.204L105.222 43.0977H118.798L116.797 55.7571Z" stroke="#474747" stroke-width="6" stroke-miterlimit="10" stroke-linecap="round" stroke-linejoin="round"/>
<path opacity="0.15" d="M120.668 39.4255H103.408V43.0977H120.668V39.4255Z" stroke="#474747" stroke-width="6" stroke-miterlimit="10" stroke-linecap="round" stroke-linejoin="round"/>
<g opacity="0.15">
<path opacity="0.15" d="M114.236 39.4255C113.057 39.4255 111.879 39.4255 110.701 39.4255C109.729 35.9273 108.887 32.2552 109 28.6604C109.13 26.9403 110.926 25.4907 112.478 25.4907C114.03 25.4907 115.825 26.9403 115.956 28.6604C116.031 32.2552 115.189 35.9273 114.236 39.4255Z" stroke="#474747" stroke-width="6" stroke-miterlimit="10" stroke-linecap="round" stroke-linejoin="round"/>
</g>
<path opacity="0.15" d="M116.031 28.2353L118.48 24.0413C118.948 23.2295 120.014 23.0556 120.706 23.674C121.398 24.2925 121.379 25.3942 120.668 25.9933L116.068 29.8975" stroke="#474747" stroke-width="6" stroke-miterlimit="10" stroke-linecap="round" stroke-linejoin="round"/>
<path opacity="0.15" d="M118.518 24.0027L117.359 20.2534C117.172 19.6736 117.546 19.0745 118.125 18.9972C118.705 18.9199 119.21 19.3837 119.21 19.9828L119.116 23.017" stroke="#474747" stroke-width="6" stroke-miterlimit="10" stroke-linecap="round" stroke-linejoin="round"/>
</g>
<path d="M85.9885 106.104L110.662 53.7936L86.2375 41.488L61.5643 93.7982L85.9885 106.104Z" fill="#77BA85"/>
<path d="M85.9885 106.104L110.662 53.7936L86.2375 41.488L61.5643 93.7982L85.9885 106.104Z" stroke="#474747" stroke-width="2" stroke-miterlimit="10" stroke-linecap="round" stroke-linejoin="round"/>
<path d="M100.996 52.4906L93.1794 48.5479C91.7021 51.6982 88.0369 52.9931 84.9888 51.4662L65.7278 92.2851L84.5587 101.775L103.82 60.9558C100.772 59.429 99.5 55.6409 100.996 52.4906Z" fill="#F6F9EA"/>
<path d="M100.996 52.4906L93.1794 48.5479C91.7021 51.6982 88.0369 52.9931 84.9888 51.4662L65.7278 92.2851L84.5587 101.775L103.82 60.9558C100.772 59.429 99.5 55.6409 100.996 52.4906Z" stroke="#474747" stroke-width="2" stroke-miterlimit="10" stroke-linecap="round" stroke-linejoin="round"/>
<path d="M106.502 55.2664L87.675 45.781L65.7306 92.3061L84.5572 101.792L106.502 55.2664Z" stroke="#474747" stroke-width="2" stroke-miterlimit="10" stroke-linecap="round" stroke-linejoin="round"/>
<path d="M87.981 76.3401C91.5234 76.3401 94.3951 73.3722 94.3951 69.7111C94.3951 66.0499 91.5234 63.082 87.981 63.082C84.4386 63.082 81.5669 66.0499 81.5669 69.7111C81.5669 73.3722 84.4386 76.3401 87.981 76.3401Z" fill="#77BA85"/>
<path d="M87.981 76.3401C91.5234 76.3401 94.3951 73.3722 94.3951 69.7111C94.3951 66.0499 91.5234 63.082 87.981 63.082C84.4386 63.082 81.5669 66.0499 81.5669 69.7111C81.5669 73.3722 84.4386 76.3401 87.981 76.3401Z" stroke="#474747" stroke-width="6" stroke-miterlimit="10" stroke-linecap="round" stroke-linejoin="round"/>
<path d="M85.493 108.61L129.034 71.715L111.808 49.9991L68.2665 86.8938L85.493 108.61Z" fill="#97CD78"/>
<path d="M85.493 108.61L129.034 71.715L111.808 49.9991L68.2665 86.8938L85.493 108.61Z" stroke="#474747" stroke-width="2" stroke-miterlimit="10" stroke-linecap="round" stroke-linejoin="round"/>
<path d="M120.762 66.3677L115.246 59.4293C112.628 61.6519 108.775 61.246 106.625 58.5403L72.647 87.3374L85.924 104.074L119.902 75.2774C117.751 72.5909 118.144 68.5903 120.762 66.3677Z" fill="#F6F9EA"/>
<path d="M120.762 66.3677L115.246 59.4293C112.628 61.6519 108.775 61.246 106.625 58.5403L72.647 87.3374L85.924 104.074L119.902 75.2774C117.751 72.5909 118.144 68.5903 120.762 66.3677Z" stroke="#474747" stroke-width="2" stroke-miterlimit="10" stroke-linecap="round" stroke-linejoin="round"/>
<path d="M124.635 71.2732L111.356 54.5342L72.6304 87.3486L85.9089 104.088L124.635 71.2732Z" stroke="#474747" stroke-width="2" stroke-miterlimit="10" stroke-linecap="round" stroke-linejoin="round"/>
<path d="M101.987 83.0466C105.53 83.0466 108.401 80.0787 108.401 76.4175C108.401 72.7563 105.53 69.7883 101.987 69.7883C98.4449 69.7883 95.5732 72.7563 95.5732 76.4175C95.5732 80.0787 98.4449 83.0466 101.987 83.0466Z" fill="#97CD78"/>
<path d="M101.987 83.0466C105.53 83.0466 108.401 80.0787 108.401 76.4175C108.401 72.7563 105.53 69.7883 101.987 69.7883C98.4449 69.7883 95.5732 72.7563 95.5732 76.4175C95.5732 80.0787 98.4449 83.0466 101.987 83.0466Z" stroke="#474747" stroke-width="2" stroke-miterlimit="10" stroke-linecap="round" stroke-linejoin="round"/>
<path opacity="0.32" d="M102.698 69.4599C102.698 66.0197 101.445 62.8887 99.4066 60.4922L68.2524 86.8929L85.4938 108.616L102.717 94.0246V69.4599H102.698Z" fill="#474747" stroke="#474747" stroke-width="2" stroke-miterlimit="10" stroke-linecap="round" stroke-linejoin="round"/>
<path d="M89.6077 125.701H50.3377C44.148 125.701 39.1177 120.502 39.1177 114.105V68.4934C39.1177 62.0962 44.148 56.8972 50.3377 56.8972H89.6077C95.7974 56.8972 100.828 62.0962 100.828 68.4934V114.105C100.828 120.522 95.8161 125.701 89.6077 125.701Z" fill="#F58870"/>
<path d="M89.6077 125.701H50.3377C44.148 125.701 39.1177 120.502 39.1177 114.105V68.4934C39.1177 62.0962 44.148 56.8972 50.3377 56.8972H89.6077C95.7974 56.8972 100.828 62.0962 100.828 68.4934V114.105C100.828 120.522 95.8161 125.701 89.6077 125.701Z" fill="#F58870"/>
<path d="M89.6077 123.363H50.3377C44.148 123.363 39.1177 118.164 39.1177 111.767V114.105C39.1177 120.502 44.148 125.701 50.3377 125.701H89.6077C95.7974 125.701 100.828 120.502 100.828 114.105V111.767C100.828 118.164 95.8161 123.363 89.6077 123.363Z" fill="#DD7868"/>
<path d="M89.6077 56.8972H50.3377C44.148 56.8972 39.1177 61.6711 39.1177 67.5466V70.0398C39.1177 64.1643 44.148 59.3904 50.3377 59.3904H89.6077C95.7974 59.3904 100.828 64.1643 100.828 70.0398V67.5466C100.828 61.6711 95.8161 56.8972 89.6077 56.8972Z" fill="#FFA399"/>
<path opacity="0.3" d="M76.5177 85.2112H66.4197C64.5684 85.2112 63.0537 83.6457 63.0537 81.7323V60.3761C63.0537 58.4627 64.5684 56.8972 66.4197 56.8972H79.8837V81.7323C79.8837 83.6457 78.3877 85.2112 76.5177 85.2112Z" fill="#474747" stroke="#474747" stroke-width="2" stroke-miterlimit="10" stroke-linecap="round" stroke-linejoin="round"/>
<path d="M89.6077 125.701H50.3377C44.148 125.701 39.1177 120.502 39.1177 114.105V68.4934C39.1177 62.0962 44.148 56.8972 50.3377 56.8972H89.6077C95.7974 56.8972 100.828 62.0962 100.828 68.4934V114.105C100.828 120.522 95.8161 125.701 89.6077 125.701Z" stroke="#474747" stroke-width="2" stroke-miterlimit="10" stroke-linecap="round" stroke-linejoin="round"/>
<g opacity="0.46">
<path opacity="0.46" d="M43.2317 113.815V68.7835C43.2317 64.7248 46.4107 61.4392 50.3377 61.4392H89.6077C93.5347 61.4392 96.7137 64.7248 96.7137 68.7835V113.796C96.7137 117.855 93.5347 121.14 89.6077 121.14H50.3377C46.4107 121.16 43.2317 117.874 43.2317 113.815Z" stroke="#474747" stroke-linecap="round" stroke-linejoin="round" stroke-dasharray="13.96 13.96"/>
</g>
<path d="M75.0216 83.0854H64.9236C63.0723 83.0854 61.5576 81.52 61.5576 79.6066V56.0275C61.5576 54.1141 63.0723 52.5486 64.9236 52.5486H75.0216C76.8729 52.5486 78.3876 54.1141 78.3876 56.0275V79.6066C78.3876 81.52 76.8916 83.0854 75.0216 83.0854Z" fill="#F79765"/>
<path d="M75.0216 81.4813H64.9236C63.0723 81.4813 61.5576 79.9158 61.5576 78.0024V79.6066C61.5576 81.52 63.0723 83.0854 64.9236 83.0854H75.0216C76.8729 83.0854 78.3876 81.52 78.3876 79.6066V78.0024C78.3876 79.9158 76.8916 81.4813 75.0216 81.4813Z" fill="#E27444"/>
<path d="M75.0216 52.5486H64.9236C63.0723 52.5486 61.5576 54.1141 61.5576 56.0275V57.3418C61.5576 55.4284 63.0723 53.8629 64.9236 53.8629H75.0216C76.8729 53.8629 78.3876 55.4284 78.3876 57.3418V56.0275C78.3876 54.1141 76.8916 52.5486 75.0216 52.5486Z" fill="#FFB797"/>
<path d="M75.0216 83.0854H64.9236C63.0723 83.0854 61.5576 81.52 61.5576 79.6066V56.0275C61.5576 54.1141 63.0723 52.5486 64.9236 52.5486H75.0216C76.8729 52.5486 78.3876 54.1141 78.3876 56.0275V79.6066C78.3876 81.52 76.8916 83.0854 75.0216 83.0854Z" stroke="#474747" stroke-width="2" stroke-miterlimit="10" stroke-linecap="round" stroke-linejoin="round"/>
<path opacity="0.3" d="M70.5337 78.0991C72.9297 78.0991 74.8721 76.0916 74.8721 73.6152C74.8721 71.1389 72.9297 69.1313 70.5337 69.1313C68.1377 69.1313 66.1953 71.1389 66.1953 73.6152C66.1953 76.0916 68.1377 78.0991 70.5337 78.0991Z" fill="#474747" stroke="#474747" stroke-width="6" stroke-miterlimit="10" stroke-linecap="round" stroke-linejoin="round"/>
<g opacity="0.46">
<path opacity="0.46" d="M64.9238 80.7661C64.3067 80.7661 63.8018 80.2443 63.8018 79.6065V56.0278C63.8018 55.39 64.3067 54.8682 64.9238 54.8682H75.0218C75.6389 54.8682 76.1438 55.39 76.1438 56.0278V79.6065C76.1438 80.2443 75.6389 80.7661 75.0218 80.7661H64.9238Z" stroke="#474747" stroke-width="4" stroke-linecap="round" stroke-linejoin="round" stroke-dasharray="9.84 9.84"/>
</g>
<path d="M69.9727 76.9395C72.3687 76.9395 74.3111 74.932 74.3111 72.4556C74.3111 69.9792 72.3687 67.9717 69.9727 67.9717C67.5766 67.9717 65.6343 69.9792 65.6343 72.4556C65.6343 74.932 67.5766 76.9395 69.9727 76.9395Z" fill="#8F6D5D"/>
<path d="M69.9727 76.9395C72.3687 76.9395 74.3111 74.932 74.3111 72.4556C74.3111 69.9792 72.3687 67.9717 69.9727 67.9717C67.5766 67.9717 65.6343 69.9792 65.6343 72.4556C65.6343 74.932 67.5766 76.9395 69.9727 76.9395Z" stroke="#474747" stroke-width="2" stroke-miterlimit="10" stroke-linecap="round" stroke-linejoin="round"/>
<g opacity="0.6">
<path opacity="0.6" d="M71.8052 70.1556C71.9548 70.89 71.1133 71.3539 69.8791 71.6245C68.6262 71.8757 67.5042 71.9144 67.3546 71.2959C67.205 70.6968 68.0465 69.5565 69.2807 69.1893C70.5336 68.8221 71.6556 69.4405 71.8052 70.1556Z" fill="#FFFCEE"/>
</g>
<path d="M132.412 125.701H119.322C118.574 125.701 117.957 125.064 117.957 124.291V123.344C117.957 122.571 118.574 121.933 119.322 121.933H132.412C133.16 121.933 133.777 122.571 133.777 123.344V124.291C133.777 125.083 133.16 125.701 132.412 125.701Z" fill="#FDB740"/>
<path opacity="0.88" d="M132.412 122.339H119.322C118.574 122.339 117.957 122.976 117.957 123.75V124.291C117.957 123.518 118.574 122.88 119.322 122.88H132.412C133.16 122.88 133.777 123.518 133.777 124.291V123.75C133.777 122.976 133.16 122.339 132.412 122.339Z" fill="#FFF3C0"/>
<path d="M132.412 125.276H119.322C118.574 125.276 117.957 124.639 117.957 123.866V123.324C117.957 124.097 118.574 124.735 119.322 124.735H132.412C133.16 124.735 133.777 124.097 133.777 123.324V123.866C133.777 124.658 133.16 125.276 132.412 125.276Z" fill="#F29E25"/>
<path d="M132.412 125.701H119.322C118.574 125.701 117.957 125.064 117.957 124.291V123.344C117.957 122.571 118.574 121.933 119.322 121.933H132.412C133.16 121.933 133.777 122.571 133.777 123.344V124.291C133.777 125.083 133.16 125.701 132.412 125.701Z" stroke="#474747" stroke-width="2" stroke-miterlimit="10" stroke-linecap="round" stroke-linejoin="round"/>
<path d="M134.6 121.952H121.51C120.762 121.952 120.145 121.314 120.145 120.541V119.594C120.145 118.821 120.762 118.183 121.51 118.183H134.6C135.348 118.183 135.965 118.821 135.965 119.594V120.541C135.947 121.334 135.348 121.952 134.6 121.952Z" fill="#FDB740"/>
<path opacity="0.88" d="M134.6 118.589H121.51C120.762 118.589 120.145 119.227 120.145 120V120.541C120.145 119.768 120.762 119.13 121.51 119.13H134.6C135.348 119.13 135.965 119.768 135.965 120.541V120C135.947 119.227 135.348 118.589 134.6 118.589Z" fill="#FFF3C0"/>
<path d="M134.6 121.527H121.51C120.762 121.527 120.145 120.889 120.145 120.116V119.575C120.145 120.348 120.762 120.986 121.51 120.986H134.6C135.348 120.986 135.965 120.348 135.965 119.575V120.116C135.947 120.909 135.348 121.527 134.6 121.527Z" fill="#F29E25"/>
<path d="M134.6 121.952H121.51C120.762 121.952 120.145 121.314 120.145 120.541V119.594C120.145 118.821 120.762 118.183 121.51 118.183H134.6C135.348 118.183 135.965 118.821 135.965 119.594V120.541C135.947 121.334 135.348 121.952 134.6 121.952Z" stroke="#474747" stroke-width="2" stroke-miterlimit="10" stroke-linecap="round" stroke-linejoin="round"/>
<path d="M132.412 118.203H119.322C118.574 118.203 117.957 117.565 117.957 116.792V115.845C117.957 115.072 118.574 114.434 119.322 114.434H132.412C133.16 114.434 133.777 115.072 133.777 115.845V116.792C133.777 117.584 133.16 118.203 132.412 118.203Z" fill="#FDB740"/>
<path opacity="0.88" d="M132.412 114.859H119.322C118.574 114.859 117.957 115.497 117.957 116.27V116.811C117.957 116.038 118.574 115.4 119.322 115.4H132.412C133.16 115.4 133.777 116.038 133.777 116.811V116.27C133.777 115.478 133.16 114.859 132.412 114.859Z" fill="#FFF3C0"/>
<path d="M132.412 117.797H119.322C118.574 117.797 117.957 117.159 117.957 116.386V115.845C117.957 116.618 118.574 117.256 119.322 117.256H132.412C133.16 117.256 133.777 116.618 133.777 115.845V116.386C133.777 117.159 133.16 117.797 132.412 117.797Z" fill="#F29E25"/>
<path d="M132.412 118.203H119.322C118.574 118.203 117.957 117.565 117.957 116.792V115.845C117.957 115.072 118.574 114.434 119.322 114.434H132.412C133.16 114.434 133.777 115.072 133.777 115.845V116.792C133.777 117.584 133.16 118.203 132.412 118.203Z" stroke="#474747" stroke-width="2" stroke-miterlimit="10" stroke-linecap="round" stroke-linejoin="round"/>
<path d="M117.602 115.381L108.663 125.257C108.158 125.818 107.298 125.856 106.737 125.315L106.083 124.677C105.54 124.155 105.503 123.266 106.026 122.687L114.965 112.81C115.47 112.25 116.33 112.211 116.891 112.752L117.546 113.39C118.069 113.931 118.107 114.801 117.602 115.381Z" fill="#FDB740"/>
<path opacity="0.88" d="M115.227 113.081L106.288 122.957C105.783 123.518 105.802 124.407 106.344 124.948L106.737 125.315C106.195 124.793 106.157 123.904 106.681 123.324L115.62 113.448C116.124 112.888 116.985 112.849 117.546 113.39L117.153 113.023C116.592 112.482 115.732 112.52 115.227 113.081Z" fill="#FFF3C0"/>
<path d="M117.303 115.091L108.364 124.967C107.859 125.528 106.999 125.566 106.438 125.025L106.045 124.658C106.587 125.18 107.448 125.161 107.971 124.6L116.91 114.724C117.415 114.163 117.396 113.274 116.854 112.733L117.246 113.1C117.77 113.642 117.807 114.531 117.303 115.091Z" fill="#F29E25"/>
<path d="M117.602 115.381L108.663 125.257C108.158 125.818 107.298 125.856 106.737 125.315L106.083 124.677C105.54 124.155 105.503 123.266 106.026 122.687L114.965 112.81C115.47 112.25 116.33 112.211 116.891 112.752L117.546 113.39C118.069 113.931 118.107 114.801 117.602 115.381Z" stroke="#474747" stroke-width="2" stroke-miterlimit="10" stroke-linecap="round" stroke-linejoin="round"/>
</g>
</svg>
