<svg width="156" height="156" viewBox="0 0 156 156" fill="none" xmlns="http://www.w3.org/2000/svg">
<mask id="mask0" mask-type="alpha" maskUnits="userSpaceOnUse" x="0" y="0" width="156" height="156">
<circle cx="78" cy="78" r="78" fill="#3A3A3A"/>
</mask>
<g mask="url(#mask0)">
<path d="M177 -19H-10V174.27H177V-19Z" fill="white"/>
<path d="M107.826 38.4016H87.9724C82.6108 38.4016 78.2642 42.8377 78.2642 48.3102V118.194C78.2664 119.163 78.475 120.12 78.875 120.997C79.2751 121.874 79.8568 122.649 80.579 123.268C81.3012 123.886 82.1462 124.333 83.0541 124.576C83.962 124.82 84.9106 124.854 85.8326 124.676C86.0696 124.633 86.3016 124.564 86.5245 124.47C90.3442 122.765 93.4022 120.491 97.9001 120.491C102.398 120.491 105.456 122.765 109.276 124.47C109.498 124.564 109.73 124.633 109.967 124.676C110.889 124.853 111.837 124.819 112.745 124.576C113.653 124.332 114.497 123.886 115.22 123.267C115.942 122.649 116.523 121.874 116.923 120.997C117.323 120.12 117.532 119.163 117.534 118.194V48.3102C117.534 42.8377 113.187 38.4016 107.826 38.4016Z" fill="white"/>
<path d="M107.826 38.4016H102.59C107.951 38.4016 112.298 42.8377 112.298 48.3102V118.194C112.295 119.448 111.947 120.675 111.295 121.732C110.643 122.79 109.715 123.634 108.617 124.168C108.834 124.27 109.053 124.371 109.275 124.47C109.497 124.564 109.729 124.633 109.966 124.676C110.888 124.854 111.836 124.82 112.744 124.576C113.652 124.333 114.497 123.886 115.219 123.268C115.941 122.649 116.523 121.874 116.923 120.997C117.323 120.12 117.532 119.163 117.534 118.194V48.3102C117.534 42.8377 113.187 38.4016 107.826 38.4016Z" fill="#EAE8EA"/>
<path d="M92.6629 120.491C88.4262 120.491 85.4667 122.508 81.9453 124.168C83.1552 124.762 84.5174 124.94 85.8323 124.676C86.0693 124.633 86.3013 124.564 86.5242 124.47C89.556 123.116 92.1088 121.406 95.2818 120.758C94.4194 120.58 93.5422 120.491 92.6629 120.491Z" fill="#D9CEDB"/>
<path d="M107.826 38.4016H87.9724C82.6108 38.4016 78.2642 42.8377 78.2642 48.3102V118.194C78.2664 119.163 78.475 120.12 78.875 120.997C79.2751 121.874 79.8568 122.649 80.579 123.268C81.3012 123.886 82.1462 124.333 83.0541 124.576C83.962 124.82 84.9106 124.854 85.8326 124.676C86.0696 124.633 86.3016 124.564 86.5245 124.47C90.3442 122.765 93.4022 120.491 97.9001 120.491C102.398 120.491 105.456 122.765 109.276 124.47C109.498 124.564 109.73 124.633 109.967 124.676C110.889 124.853 111.837 124.819 112.745 124.576C113.653 124.332 114.497 123.886 115.22 123.267C115.942 122.649 116.523 121.874 116.923 120.997C117.323 120.12 117.532 119.163 117.534 118.194V48.3102C117.534 42.8377 113.187 38.4016 107.826 38.4016Z" stroke="#363A5A" stroke-width="2" stroke-linecap="round" stroke-linejoin="round"/>
<path d="M105.795 35.6956H90.0869V38.4016H105.795V35.6956Z" fill="#EAE8EA"/>
<path d="M105.795 35.6956H90.0869V38.4016H105.795V35.6956Z" stroke="#363A5A" stroke-width="2" stroke-linecap="round" stroke-linejoin="round"/>
<path d="M106.005 35.76C100.633 36.067 95.249 36.067 89.8769 35.76C89.5908 35.7429 89.3218 35.6132 89.1252 35.3976C88.9286 35.1819 88.8193 34.8967 88.8198 34.6004C88.8198 32.363 88.8198 30.1255 88.8198 27.8879C88.8198 25.754 90.4703 23.634 92.4863 23.1721C96.0763 22.3421 99.7996 22.3447 103.388 23.1797C105.408 23.6404 107.063 25.7587 107.063 27.8955C107.063 30.1301 107.063 32.3645 107.063 34.5989C107.063 34.8955 106.954 35.1811 106.758 35.3971C106.561 35.6131 106.292 35.7429 106.005 35.76Z" fill="white"/>
<path d="M107.062 27.8979C107.062 25.7603 105.408 23.6421 103.388 23.1821C101.04 22.6391 98.6284 22.4484 96.2278 22.616C97.5044 22.7069 98.7727 22.8961 100.022 23.1821C102.042 23.6428 103.696 25.7611 103.696 27.8979C103.696 30.1325 103.696 32.367 103.696 34.6014C103.696 34.8976 103.587 35.1828 103.391 35.3984C103.194 35.614 102.925 35.7438 102.639 35.761C100.513 35.8824 98.3864 35.9551 96.2581 35.9792C99.5079 36.0179 102.757 35.9451 106.005 35.761C106.291 35.7438 106.56 35.614 106.757 35.3984C106.953 35.1828 107.062 34.8976 107.062 34.6014C107.062 32.3674 107.062 30.1329 107.062 27.8979Z" fill="#EAE8EA"/>
<path d="M106.005 35.76C100.633 36.067 95.249 36.067 89.8769 35.76C89.5908 35.7429 89.3218 35.6132 89.1252 35.3976C88.9286 35.1819 88.8193 34.8967 88.8198 34.6004C88.8198 32.363 88.8198 30.1255 88.8198 27.8879C88.8198 25.754 90.4703 23.634 92.4863 23.1721C96.0763 22.3421 99.7996 22.3447 103.388 23.1797C105.408 23.6404 107.063 25.7587 107.063 27.8955C107.063 30.1301 107.063 32.3645 107.063 34.5989C107.063 34.8955 106.954 35.1811 106.758 35.3971C106.561 35.6131 106.292 35.7429 106.005 35.76V35.76Z" stroke="#363A5A" stroke-width="2" stroke-linecap="round" stroke-linejoin="round"/>
<path d="M78.2642 56.9553V118.194C78.2664 119.163 78.475 120.12 78.875 120.997C79.2751 121.874 79.8568 122.649 80.579 123.268C81.3012 123.886 82.1462 124.333 83.0541 124.576C83.962 124.82 84.9106 124.854 85.8326 124.676C86.0696 124.633 86.3016 124.564 86.5245 124.47C90.3442 122.765 93.4022 120.491 97.9001 120.491C102.398 120.491 105.456 122.765 109.276 124.47C109.498 124.564 109.73 124.633 109.967 124.676C110.889 124.853 111.837 124.819 112.745 124.576C113.653 124.332 114.497 123.886 115.22 123.267C115.942 122.649 116.523 121.874 116.923 120.997C117.323 120.12 117.532 119.163 117.534 118.194V56.9553H78.2642Z" fill="#73E1FF"/>
<path d="M112.111 56.9553V115.488C112.109 116.458 111.9 117.415 111.5 118.292C111.1 119.168 110.518 119.943 109.796 120.562C109.074 121.18 108.229 121.627 107.321 121.871C106.413 122.114 105.465 122.148 104.543 121.97C104.306 121.927 104.074 121.858 103.852 121.765C100.032 120.058 96.9742 117.786 92.4761 117.786C87.978 117.786 84.9202 120.058 81.1005 121.765C80.8779 121.858 80.6462 121.927 80.4095 121.97C80.109 122.029 79.8047 122.066 79.499 122.079C80.2076 123.089 81.1794 123.869 82.3009 124.329C83.4223 124.788 84.6473 124.909 85.8325 124.676C86.0696 124.633 86.3015 124.564 86.5244 124.471C90.3441 122.765 93.4021 120.491 97.9 120.491C102.398 120.491 105.456 122.765 109.276 124.471C109.498 124.564 109.73 124.633 109.967 124.676C110.889 124.854 111.837 124.819 112.745 124.576C113.653 124.333 114.497 123.886 115.22 123.267C115.942 122.649 116.523 121.874 116.923 120.997C117.323 120.12 117.532 119.163 117.534 118.194V56.9553H112.111Z" fill="#48D8F9"/>
<path d="M78.2642 56.9553V118.194C78.2664 119.163 78.475 120.12 78.875 120.997C79.2751 121.874 79.8568 122.649 80.579 123.268C81.3012 123.886 82.1462 124.333 83.0541 124.576C83.962 124.82 84.9106 124.854 85.8326 124.676C86.0696 124.633 86.3016 124.564 86.5245 124.47C90.3442 122.765 93.4022 120.491 97.9001 120.491C102.398 120.491 105.456 122.765 109.276 124.47C109.498 124.564 109.73 124.633 109.967 124.676C110.889 124.853 111.837 124.819 112.745 124.576C113.653 124.332 114.497 123.886 115.22 123.267C115.942 122.649 116.523 121.874 116.923 120.997C117.323 120.12 117.532 119.163 117.534 118.194V56.9553H78.2642Z" stroke="#363A5A" stroke-width="2" stroke-linecap="round" stroke-linejoin="round"/>
<path d="M88.736 76.2822C89.9753 76.2822 90.98 75.2439 90.98 73.9631C90.98 72.6823 89.9753 71.644 88.736 71.644C87.4966 71.644 86.4919 72.6823 86.4919 73.9631C86.4919 75.2439 87.4966 76.2822 88.736 76.2822Z" fill="#ABEFFF"/>
<path d="M102.2 85.5593C103.026 85.5593 103.696 84.8671 103.696 84.0132C103.696 83.1593 103.026 82.467 102.2 82.467C101.374 82.467 100.704 83.1593 100.704 84.0132C100.704 84.8671 101.374 85.5593 102.2 85.5593Z" fill="#ABEFFF"/>
<path d="M93.2241 97.1555C93.8437 97.1555 94.3461 96.6364 94.3461 95.996C94.3461 95.3556 93.8437 94.8364 93.2241 94.8364C92.6044 94.8364 92.1021 95.3556 92.1021 95.996C92.1021 96.6364 92.6044 97.1555 93.2241 97.1555Z" fill="#ABEFFF"/>
<path d="M98.0859 70.8708C98.7055 70.8708 99.2079 70.3516 99.2079 69.7112C99.2079 69.0707 98.7055 68.5515 98.0859 68.5515C97.4662 68.5515 96.9639 69.0707 96.9639 69.7112C96.9639 70.3516 97.4662 70.8708 98.0859 70.8708Z" fill="#ABEFFF"/>
<path d="M23.4729 67.5496C21.892 67.6369 20.3264 67.9138 18.8074 68.3749C18.7938 68.9286 18.7945 69.4856 18.8231 70.0483C18.9848 73.2239 19.8401 76.3205 21.3249 79.1057C22.8097 81.891 24.8854 84.2926 27.3963 86.1305C29.9073 87.9683 32.7883 89.1947 35.8232 89.7177C38.8582 90.2406 41.9683 90.0465 44.9203 89.1499C44.9339 88.5962 44.9334 88.0392 44.9046 87.4765C44.6193 81.8967 42.201 76.6626 38.1818 72.9256C34.1626 69.1886 28.8716 67.2548 23.4729 67.5496Z" fill="#76C526"/>
<path d="M23.4729 67.5496C21.892 67.6369 20.3264 67.9138 18.8074 68.3749C18.7938 68.9286 18.7945 69.4856 18.8231 70.0483C18.9848 73.2239 19.8401 76.3205 21.3249 79.1057C22.8097 81.891 24.8854 84.2926 27.3963 86.1305C29.9073 87.9683 32.7883 89.1947 35.8232 89.7177C38.8582 90.2406 41.9683 90.0465 44.9203 89.1499C44.9339 88.5962 44.9334 88.0392 44.9046 87.4765C44.6193 81.8967 42.201 76.6626 38.1818 72.9256C34.1626 69.1886 28.8716 67.2548 23.4729 67.5496V67.5496Z" stroke="#363A5A" stroke-width="2" stroke-linecap="round" stroke-linejoin="round"/>
<path d="M59.8197 63.2797C59.5139 61.8851 59.0523 60.532 58.4441 59.2476C57.9806 59.3171 57.5163 59.3999 57.0517 59.5083C54.4287 60.1204 51.9738 61.3383 49.8711 63.0709C47.7685 64.8034 46.0728 67.0055 44.9111 69.5121C43.7494 72.0186 43.1519 74.7644 43.1635 77.5436C43.1751 80.3228 43.7954 83.0632 44.9779 85.5593C45.4415 85.4899 45.9058 85.4072 46.3703 85.2986C48.6523 84.7656 50.8104 83.7732 52.7213 82.3782C54.6322 80.9831 56.2586 79.2127 57.5075 77.1681C58.7564 75.1234 59.6034 72.8445 60.0001 70.4616C60.3968 68.0786 60.3355 65.6382 59.8197 63.2797Z" fill="#76C526"/>
<path d="M59.8198 63.2792C59.6587 62.5441 59.4536 61.82 59.2059 61.1111C59.3898 65.425 58.1014 69.6686 55.5658 73.1005C53.0301 76.5324 49.4084 78.9345 45.3333 79.887C44.8688 79.9956 44.4045 80.0783 43.9411 80.1477C43.6547 79.5413 43.4004 78.9192 43.1794 78.2842C43.2908 80.8109 43.9029 83.2871 44.978 85.5593C45.4416 85.4899 45.9057 85.4072 46.3704 85.2986C48.6524 84.7655 50.8105 83.7731 52.7214 82.378C54.6324 80.983 56.2587 79.2125 57.5076 77.1678C58.7565 75.1231 59.6035 72.8442 60.0002 70.4612C60.397 68.0782 60.3357 65.6377 59.8198 63.2792Z" fill="#5FA412"/>
<path d="M59.8197 63.2797C59.5139 61.8851 59.0523 60.532 58.4441 59.2476C57.9806 59.3171 57.5163 59.3999 57.0517 59.5083C54.4287 60.1204 51.9738 61.3383 49.8711 63.0709C47.7685 64.8034 46.0728 67.0055 44.9111 69.5121C43.7494 72.0186 43.1519 74.7644 43.1635 77.5436C43.1751 80.3228 43.7954 83.0632 44.9779 85.5593C45.4415 85.4899 45.9058 85.4072 46.3703 85.2986C48.6523 84.7656 50.8104 83.7732 52.7213 82.3782C54.6322 80.9831 56.2586 79.2127 57.5075 77.1681C58.7564 75.1234 59.6034 72.8445 60.0001 70.4616C60.3968 68.0786 60.3355 65.6382 59.8197 63.2797V63.2797Z" stroke="#363A5A" stroke-width="2" stroke-linecap="round" stroke-linejoin="round"/>
<path d="M53.1561 69.3245C53.1561 69.3245 48.9564 74.9294 44.978 85.5593" stroke="#363A5A" stroke-width="2" stroke-linecap="round" stroke-linejoin="round"/>
<path d="M27.5371 75.7026C27.5371 75.7026 39.4879 87.5218 44.9195 89.1497" stroke="#363A5A" stroke-width="2" stroke-linecap="round" stroke-linejoin="round"/>
<path d="M65.41 103.63C65.4072 106.511 64.8505 109.363 63.7723 112.019C62.6941 114.676 61.1158 117.084 59.1292 119.105C57.1426 121.126 54.7872 122.718 52.2 123.79C49.6127 124.862 46.8452 125.392 44.0581 125.349C41.271 125.306 38.52 124.691 35.9649 123.539C33.4098 122.388 31.1016 120.724 29.1743 118.642C27.247 116.561 25.739 114.105 24.7381 111.416C23.7372 108.727 23.2632 105.86 23.3437 102.98C23.6514 91.7229 31.9313 82.4744 43.0113 83.4564C43.9059 83.538 44.8048 83.5588 45.702 83.5184C56.8379 82.9871 65.41 92.0776 65.41 103.63Z" fill="#FF7D00"/>
<path d="M60.1502 89.4902C61.0576 92.0648 61.5182 94.7848 61.5108 97.5249C61.5026 101.416 60.5676 105.244 58.7883 108.673C57.009 112.102 54.4402 115.025 51.3087 117.184C48.1772 119.344 44.5794 120.673 40.8331 121.054C37.0868 121.436 33.3072 120.858 29.8281 119.372C32.8119 122.307 36.5629 124.274 40.6169 125.028C44.6709 125.782 48.85 125.292 52.6369 123.616C56.4237 121.941 59.6521 119.155 61.9224 115.602C64.1927 112.05 65.4053 107.887 65.4101 103.63C65.4101 98.0856 63.435 93.1091 60.1502 89.4902Z" fill="#FF6C22"/>
<path d="M55.8241 86.1392C48.3441 88.2651 43.3886 96.0188 42.1731 104.5C41.4251 109.718 44.6041 122.281 53.685 123.131C57.2052 121.335 60.1689 118.557 62.241 115.111C64.313 111.664 65.4107 107.688 65.4099 103.63C65.4101 95.5178 62.1974 89.3444 55.8241 86.1392Z" fill="#FF6C22"/>
<path d="M65.41 103.63C65.4072 106.511 64.8505 109.363 63.7723 112.019C62.6941 114.676 61.1158 117.084 59.1292 119.105C57.1426 121.126 54.7872 122.718 52.2 123.79C49.6127 124.862 46.8452 125.392 44.0581 125.349C41.271 125.306 38.52 124.691 35.9649 123.539C33.4098 122.388 31.1016 120.724 29.1743 118.642C27.247 116.561 25.739 114.105 24.7381 111.416C23.7372 108.727 23.2632 105.86 23.3437 102.98C23.6514 91.7229 31.9313 82.4744 43.0113 83.4564C43.9059 83.538 44.8048 83.5588 45.702 83.5184C56.8379 82.9871 65.41 92.0776 65.41 103.63Z" stroke="#363A5A" stroke-width="2" stroke-linecap="round" stroke-linejoin="round"/>
<path d="M29.831 96.1892C29.6708 96.1891 29.5133 96.1464 29.3736 96.0652C29.2339 95.9841 29.1167 95.8672 29.0333 95.7258C28.9499 95.5844 28.9031 95.4232 28.8973 95.2577C28.8916 95.0922 28.927 94.9279 29.0004 94.7806C32.5549 87.6372 39.5313 86.7586 39.8266 86.7245C40.073 86.6959 40.3204 86.7697 40.5142 86.9296C40.708 87.0895 40.8324 87.3224 40.8601 87.5771C40.8878 87.8318 40.8164 88.0874 40.6617 88.2877C40.5071 88.4881 40.2817 88.6167 40.0353 88.6453C39.78 88.676 33.7474 89.4665 30.6632 95.6647C30.5846 95.8227 30.4653 95.9553 30.3185 96.0479C30.1716 96.1404 30.003 96.1893 29.831 96.1892Z" fill="#FF9636"/>
<path d="M30.392 102.954C30.8051 102.954 31.14 102.608 31.14 102.181C31.14 101.754 30.8051 101.407 30.392 101.407C29.9789 101.407 29.644 101.754 29.644 102.181C29.644 102.608 29.9789 102.954 30.392 102.954Z" fill="#FF9636"/>
<path d="M36.0019 117.256C36.415 117.256 36.7499 116.909 36.7499 116.483C36.7499 116.056 36.415 115.709 36.0019 115.709C35.5888 115.709 35.2539 116.056 35.2539 116.483C35.2539 116.909 35.5888 117.256 36.0019 117.256Z" fill="#FF9636"/>
<path d="M30.766 112.037C31.3857 112.037 31.888 111.518 31.888 110.878C31.888 110.237 31.3857 109.718 30.766 109.718C30.1464 109.718 29.644 110.237 29.644 110.878C29.644 111.518 30.1464 112.037 30.766 112.037Z" fill="#FF9636"/>
<path d="M39.0876 106.819C39.4491 106.819 39.7421 106.516 39.7421 106.143C39.7421 105.769 39.4491 105.466 39.0876 105.466C38.7261 105.466 38.4331 105.769 38.4331 106.143C38.4331 106.516 38.7261 106.819 39.0876 106.819Z" fill="#FF9636"/>
<path d="M65.5422 125.373C76.6718 125.373 85.6941 116.048 85.6941 104.545C85.6941 93.0426 76.6718 83.7178 65.5422 83.7178C54.4127 83.7178 45.3904 93.0426 45.3904 104.545C45.3904 116.048 54.4127 125.373 65.5422 125.373Z" fill="#FF7D00"/>
<path d="M76.3378 86.9563C79.6507 90.6738 81.5427 95.5094 81.6612 100.562C81.7797 105.615 80.1167 110.539 76.982 114.418C73.8473 118.297 69.4549 120.866 64.6234 121.646C59.7918 122.425 54.8508 121.363 50.7212 118.656C52.6645 120.836 55.0355 122.562 57.6758 123.718C60.3161 124.875 63.1649 125.436 66.0318 125.364C68.8987 125.292 71.7177 124.588 74.3004 123.3C76.8831 122.012 79.17 120.169 81.0083 117.894C82.8466 115.619 84.194 112.965 84.9604 110.109C85.7267 107.253 85.8945 104.26 85.4524 101.332C85.0103 98.4033 83.9685 95.6061 82.3967 93.1271C80.8249 90.648 78.7593 88.5442 76.3378 86.9563Z" fill="#FF5B00"/>
<path d="M65.5423 123.145C75.4813 123.145 83.5384 114.818 83.5384 104.545C83.5384 94.2731 75.4813 85.9458 65.5423 85.9458C55.6033 85.9458 47.5461 94.2731 47.5461 104.545C47.5461 114.818 55.6033 123.145 65.5423 123.145Z" fill="white"/>
<path d="M83.527 103.92C83.5254 103.866 83.5234 103.813 83.521 103.759C83.5135 103.57 83.5038 103.382 83.4907 103.194C83.4892 103.175 83.4885 103.156 83.4872 103.136C83.4722 102.93 83.4531 102.726 83.4311 102.522C83.426 102.474 83.4206 102.426 83.4152 102.378C83.3946 102.196 83.3717 102.015 83.3465 101.835C83.3432 101.81 83.34 101.785 83.3364 101.76C83.3068 101.555 83.2737 101.352 83.2371 101.149C83.2304 101.112 83.2231 101.074 83.2162 101.037C83.1825 100.854 83.1463 100.673 83.1075 100.492C83.1023 100.468 83.0976 100.444 83.0922 100.42C83.0473 100.215 82.9991 100.011 82.9475 99.8084C82.9419 99.7859 82.9357 99.7635 82.9299 99.7413C82.881 99.5524 82.8295 99.3648 82.7754 99.1785C82.7696 99.1592 82.764 99.1385 82.7582 99.1186C82.6975 98.9124 82.6335 98.7079 82.5662 98.5049L82.5636 98.4972C82.497 98.2972 82.4271 98.0988 82.3539 97.9019L82.3384 97.8596C82.1877 97.4561 82.024 97.0594 81.8474 96.6696C81.8438 96.6615 81.8402 96.6534 81.8365 96.6455C81.6576 96.2518 81.4658 95.8658 81.2611 95.4874L81.2557 95.4775C81.0492 95.0961 80.8304 94.7233 80.5991 94.3589C81.7103 97.7458 81.9596 101.371 81.3229 104.887C80.6863 108.402 79.1851 111.689 76.9638 114.431C74.7425 117.173 71.8759 119.279 68.6396 120.545C65.4033 121.811 61.9063 122.195 58.4849 121.66C59.3024 122.02 60.1449 122.317 61.0053 122.549L61.0097 122.55C61.1507 122.588 61.2924 122.624 61.4346 122.658L61.4469 122.661C61.5841 122.694 61.722 122.726 61.8608 122.755L61.8886 122.761C62.0218 122.79 62.1555 122.816 62.2898 122.841L62.3339 122.85C62.4648 122.875 62.5968 122.897 62.7288 122.919L62.7825 122.928C62.9063 122.947 63.0306 122.965 63.1552 122.982C63.1821 122.986 63.2087 122.99 63.2356 122.994C63.3555 123.01 63.4759 123.023 63.5963 123.037C63.6279 123.04 63.6593 123.045 63.6898 123.048C63.8046 123.06 63.9196 123.07 64.035 123.08C64.0724 123.083 64.1108 123.087 64.1487 123.09C64.2576 123.099 64.3671 123.105 64.4765 123.112C64.5212 123.115 64.5657 123.118 64.6104 123.121C64.7226 123.127 64.8367 123.13 64.95 123.134C64.9915 123.136 65.0327 123.138 65.0744 123.139C65.2293 123.143 65.3852 123.145 65.5419 123.145C69.0061 123.148 72.3973 122.117 75.3078 120.175C78.2183 118.233 80.524 115.464 81.9478 112.2C82.0678 111.925 82.1816 111.647 82.2892 111.365C82.4504 110.943 82.5968 110.513 82.7283 110.076C82.9493 109.342 83.1257 108.595 83.2564 107.838C83.3091 107.532 83.3546 107.225 83.3929 106.914C83.4894 106.129 83.5376 105.337 83.5375 104.545C83.5382 104.336 83.5337 104.128 83.527 103.92Z" fill="#EAE8EA"/>
<path d="M65.5422 125.373C76.6718 125.373 85.6941 116.048 85.6941 104.545C85.6941 93.0426 76.6718 83.7178 65.5422 83.7178C54.4127 83.7178 45.3904 93.0426 45.3904 104.545C45.3904 116.048 54.4127 125.373 65.5422 125.373Z" stroke="#363A5A" stroke-width="2" stroke-linecap="round" stroke-linejoin="round"/>
<path d="M69.9722 101.98C69.8027 101.668 69.6026 101.375 69.3751 101.106C69.0365 100.714 68.8252 100.222 68.7708 99.6993C68.7164 99.1766 68.8217 98.6495 69.072 98.1918L72.1694 92.6226C72.3452 92.3063 72.586 92.0337 72.8749 91.824C73.1637 91.6143 73.4936 91.4727 73.8412 91.4092C74.1888 91.3457 74.5456 91.3617 74.8865 91.4563C75.2274 91.5509 75.5441 91.7216 75.8142 91.9564C77.9166 93.7825 79.5247 96.141 80.4812 98.8016C80.6039 99.1438 80.6524 99.5096 80.6233 99.8734C80.5942 100.237 80.4883 100.59 80.3128 100.906C80.1374 101.223 79.8969 101.496 79.6082 101.706C79.3195 101.917 78.9897 102.059 78.6421 102.123L72.5193 103.252C72.0194 103.34 71.5054 103.265 71.0488 103.037C70.5922 102.809 70.2158 102.439 69.9722 101.98Z" fill="#FFCE43"/>
<path d="M61.1122 107.111C61.2819 107.423 61.482 107.715 61.7093 107.985C62.048 108.377 62.2594 108.869 62.3138 109.392C62.3682 109.914 62.2629 110.441 62.0127 110.899L58.915 116.468C58.7392 116.784 58.4984 117.057 58.2097 117.267C57.9209 117.476 57.5911 117.618 57.2436 117.681C56.896 117.745 56.5393 117.729 56.1984 117.634C55.8575 117.54 55.5408 117.369 55.2707 117.135C53.1683 115.309 51.5604 112.95 50.6039 110.29C50.4812 109.947 50.4327 109.581 50.4618 109.218C50.4909 108.854 50.5969 108.501 50.7723 108.185C50.9477 107.868 51.1882 107.595 51.4769 107.385C51.7656 107.175 52.0955 107.033 52.4431 106.969L58.5659 105.839C59.0656 105.751 59.5795 105.826 60.0359 106.054C60.4924 106.282 60.8686 106.652 61.1122 107.111Z" fill="#FFCE43"/>
<path d="M65.6041 99.2974C65.2583 99.2936 64.9131 99.3266 64.5739 99.3959C64.076 99.5033 63.558 99.4468 63.0927 99.2345C62.6275 99.0221 62.2381 98.6646 61.9795 98.212L58.8579 92.6572C58.6805 92.3418 58.5722 91.9901 58.5407 91.6268C58.5091 91.2635 58.5551 90.8975 58.6753 90.5546C58.7956 90.2117 58.9872 89.9002 59.2366 89.6421C59.486 89.384 59.7871 89.1857 60.1188 89.061C62.6994 88.0904 65.4796 87.8284 68.1875 88.3007C68.5356 88.3617 68.8665 88.5009 69.1568 88.7086C69.4471 88.9162 69.6898 89.1872 69.8678 89.5024C70.0457 89.8176 70.1545 90.1693 70.1865 90.5327C70.2185 90.8961 70.1729 91.2624 70.053 91.6056L67.9416 97.6523C67.7659 98.1437 67.4463 98.5663 67.0274 98.8611C66.6084 99.156 66.1109 99.3085 65.6041 99.2974Z" fill="#FFCE43"/>
<path d="M65.4808 109.793C65.8266 109.797 66.1718 109.764 66.511 109.695C67.009 109.588 67.5269 109.644 67.9922 109.856C68.4575 110.069 68.8468 110.426 69.1055 110.879L72.2273 116.434C72.4046 116.749 72.5129 117.101 72.5444 117.464C72.5759 117.827 72.5299 118.193 72.4096 118.536C72.2894 118.879 72.0978 119.191 71.8484 119.449C71.599 119.707 71.2978 119.905 70.9661 120.03C68.3855 121.001 65.6054 121.263 62.8974 120.79C62.5493 120.729 62.2185 120.59 61.9282 120.382C61.6378 120.175 61.3952 119.904 61.2173 119.589C61.0394 119.273 60.9306 118.922 60.8986 118.558C60.8666 118.195 60.9122 117.829 61.0321 117.485L63.143 111.438C63.3187 110.947 63.6383 110.524 64.0574 110.229C64.4764 109.935 64.974 109.782 65.4808 109.793Z" fill="#FFCE43"/>
<path d="M61.1788 101.86C61.0025 102.168 60.8572 102.493 60.7451 102.831C60.5855 103.33 60.2786 103.765 59.8677 104.075C59.4567 104.385 58.9623 104.554 58.4537 104.558L52.2383 104.567C51.8854 104.567 51.5367 104.488 51.2167 104.334C50.8967 104.18 50.6133 103.956 50.3865 103.676C50.1596 103.397 49.9948 103.069 49.9037 102.717C49.8127 102.365 49.7975 101.996 49.8593 101.637C50.3399 98.8421 51.5137 96.2243 53.2661 94.039C53.4916 93.7581 53.7741 93.5319 54.0935 93.3762C54.4129 93.2206 54.7615 93.1393 55.1147 93.1382C55.4678 93.1371 55.8169 93.2161 56.1372 93.3696C56.4576 93.5232 56.7414 93.7476 56.9687 94.027L60.9735 98.945C61.2969 99.3484 61.4905 99.8462 61.5273 100.369C61.5641 100.891 61.4423 101.413 61.1788 101.86Z" fill="#FFCE43"/>
<path d="M69.9051 107.23C70.0814 106.923 70.2268 106.598 70.3389 106.259C70.4986 105.76 70.8054 105.325 71.2163 105.016C71.6273 104.706 72.1218 104.537 72.6304 104.532L78.8457 104.524C79.1987 104.523 79.5474 104.603 79.8674 104.757C80.1874 104.91 80.4708 105.135 80.6977 105.414C80.9246 105.694 81.0893 106.021 81.1804 106.374C81.2715 106.726 81.2866 107.095 81.2247 107.454C80.7444 110.249 79.5708 112.867 77.8185 115.052C77.593 115.333 77.3105 115.559 76.9911 115.715C76.6717 115.871 76.3231 115.952 75.9699 115.953C75.6168 115.954 75.2677 115.875 74.9474 115.722C74.627 115.568 74.3432 115.344 74.1159 115.064L70.1108 110.146C69.7873 109.742 69.5936 109.245 69.5567 108.722C69.5199 108.199 69.6416 107.678 69.9051 107.23Z" fill="#FFCE43"/>
<path d="M69.3751 101.106C69.6025 101.375 69.8026 101.668 69.9722 101.98C70.2159 102.439 70.5921 102.808 71.0486 103.036C71.5051 103.264 72.019 103.34 72.5188 103.251L78.6415 102.122C78.9891 102.058 79.3189 101.916 79.6076 101.706C79.8963 101.496 80.1368 101.223 80.3122 100.906C80.4876 100.589 80.5936 100.237 80.6227 99.8731C80.6518 99.5094 80.6033 99.1436 80.4807 98.8014C79.5243 96.1409 77.9164 93.7825 75.8143 91.9565C75.5441 91.7217 75.2275 91.5511 74.8866 91.4566C74.5457 91.3622 74.1889 91.3462 73.8414 91.4097C73.4939 91.4733 73.1641 91.6149 72.8753 91.8245C72.5865 92.0342 72.3458 92.3068 72.17 92.6231L69.0725 98.1922C68.8223 98.6497 68.717 99.1768 68.7712 99.6993C68.8255 100.222 69.0367 100.714 69.3751 101.106Z" fill="#FFCE43"/>
<path d="M57.9193 112.037C58.9291 112.203 59.8796 112.638 60.6774 113.299L62.0126 110.899C62.2627 110.441 62.368 109.914 62.3137 109.391C62.2593 108.869 62.048 108.377 61.7094 107.985C61.4819 107.715 61.2818 107.423 61.1122 107.111C60.8685 106.652 60.4923 106.282 60.0358 106.054C59.5794 105.826 59.0655 105.751 58.5658 105.839L54.6646 106.559C54.9523 110.822 55.8533 111.732 57.9193 112.037Z" fill="#FFCE43"/>
<path d="M61.9788 98.212C62.2375 98.6646 62.6268 99.0221 63.0921 99.2345C63.5574 99.4468 64.0753 99.5033 64.5732 99.396C64.9124 99.3266 65.2576 99.2936 65.6034 99.2974C66.1102 99.3085 66.6077 99.156 67.0267 98.8612C67.4456 98.5663 67.7652 98.1437 67.9409 97.6523L70.0517 91.6058C70.1716 91.2626 70.2172 90.8964 70.1852 90.533C70.1532 90.1696 70.0444 89.8179 69.8665 89.5027C69.6886 89.1875 69.4459 88.9165 69.1555 88.7088C68.8652 88.5012 68.5343 88.3619 68.1862 88.3009C65.4783 87.8287 62.6982 88.0907 60.1176 89.0612C59.7859 89.1859 59.4848 89.3843 59.2353 89.6423C58.9859 89.9004 58.7944 90.2119 58.6741 90.5548C58.5539 90.8978 58.5079 91.2638 58.5394 91.6271C58.571 91.9904 58.6793 92.3421 58.8566 92.6574L61.9788 98.212Z" fill="#FFCE43"/>
<path d="M69.1054 110.879C68.8467 110.426 68.4574 110.069 67.9921 109.856C67.5269 109.644 67.0089 109.588 66.511 109.695C66.1718 109.764 65.8266 109.797 65.4808 109.793C64.974 109.782 64.4765 109.935 64.0575 110.23C63.6385 110.525 63.3189 110.947 63.1433 111.439L62.0447 114.585C62.3365 114.912 62.6448 115.223 62.9683 115.516C63.9033 116.289 67.4563 116.676 67.4563 117.256C67.4563 117.666 68.1108 119.621 68.4939 120.732C69.3349 120.567 70.1617 120.332 70.9661 120.03C71.2977 119.905 71.5989 119.707 71.8483 119.449C72.0977 119.191 72.2893 118.879 72.4096 118.536C72.5298 118.193 72.5758 117.827 72.5443 117.464C72.5128 117.101 72.4046 116.749 72.2272 116.434L69.1054 110.879Z" fill="#FFCE43"/>
<path d="M54.5532 102.374C54.5532 103.169 54.5613 103.895 54.5774 104.563L58.4535 104.558C58.9621 104.554 59.4565 104.385 59.8675 104.075C60.2784 103.765 60.5853 103.33 60.745 102.831C60.857 102.493 61.0023 102.168 61.1786 101.86C61.4421 101.413 61.5639 100.891 61.527 100.369C61.4901 99.8461 61.2964 99.3484 60.9729 98.9449L56.9681 94.027C56.7409 93.7476 56.4571 93.5232 56.1367 93.3696C55.8164 93.2161 55.4673 93.1371 55.1141 93.1382C54.761 93.1393 54.4124 93.2206 54.093 93.3762C53.7736 93.5319 53.4911 93.7581 53.2655 94.0389C52.4716 95.0296 51.7933 96.1135 51.2446 97.2681C52.9918 97.6048 54.5532 98.8819 54.5532 102.374Z" fill="#FFCE43"/>
<path d="M78.8462 104.524L72.6307 104.532C72.1221 104.537 71.6277 104.706 71.2167 105.016C70.8058 105.325 70.499 105.76 70.3394 106.26C70.2273 106.598 70.0819 106.923 69.9056 107.23C69.6421 107.678 69.5204 108.199 69.5572 108.722C69.5941 109.245 69.7878 109.742 70.1113 110.146L74.116 115.064C74.3433 115.343 74.6271 115.568 74.9475 115.721C75.2678 115.875 75.6169 115.954 75.9701 115.953C76.3232 115.951 76.6718 115.87 76.9912 115.715C77.3106 115.559 77.5931 115.333 77.8186 115.052C79.571 112.866 80.7448 110.249 81.2254 107.454C81.2873 107.095 81.2721 106.726 81.1811 106.374C81.09 106.021 80.9252 105.694 80.6983 105.414C80.4714 105.135 80.188 104.91 79.868 104.757C79.5479 104.603 79.1992 104.523 78.8462 104.524Z" fill="#FFCE43"/>
<path d="M50.6039 110.29C51.5604 112.95 53.1683 115.309 55.2707 117.135C55.5409 117.369 55.8575 117.54 56.1984 117.634C56.5393 117.729 56.8961 117.745 57.2436 117.681C57.5911 117.618 57.9209 117.476 58.2097 117.267C58.4985 117.057 58.7392 116.784 58.915 116.468L60.6775 113.299C59.8797 112.638 58.9292 112.203 57.9194 112.037C55.8534 111.732 54.9525 110.823 54.6641 106.559L52.4431 106.969C52.0955 107.033 51.7656 107.175 51.4769 107.385C51.1882 107.595 50.9477 107.868 50.7723 108.185C50.5969 108.501 50.4909 108.854 50.4618 109.218C50.4327 109.581 50.4812 109.947 50.6039 110.29Z" fill="#FFB345"/>
<path d="M62.9683 115.516C62.6447 115.223 62.3363 114.912 62.0443 114.585L61.0321 117.485C60.9122 117.828 60.8666 118.194 60.8986 118.557C60.9306 118.921 61.0394 119.272 61.2173 119.588C61.3952 119.903 61.6378 120.174 61.9282 120.382C62.2185 120.589 62.5494 120.728 62.8974 120.79C64.7515 121.113 66.6466 121.094 68.494 120.732C68.1099 119.621 63.9033 116.289 62.9683 115.516Z" fill="#FFB345"/>
<path d="M52.2382 104.567L54.5774 104.564C54.5613 103.895 54.5533 103.169 54.5533 102.374C54.5533 98.8821 52.9918 97.605 51.245 97.2683C50.5873 98.6499 50.1208 100.12 49.8592 101.636C49.7973 101.995 49.8124 102.364 49.9034 102.717C49.9944 103.069 50.1592 103.397 50.3861 103.676C50.6129 103.955 50.8964 104.18 51.2164 104.334C51.5364 104.488 51.8852 104.567 52.2382 104.567Z" fill="#FFB345"/>
</g>
</svg>
